Seminar 3
…
omit_4 <- filter(df, df$bathrms != 4)
omit_4

## # A tibble: 545 x 12
##    price lotsize bedrooms bathrms stories driveway recroom fullbase gashw
##    <dbl>   <dbl>    <dbl>   <dbl>   <dbl>    <dbl>   <dbl>    <dbl> <dbl>
##  1 42000    5850        3       1       2        1       0        1     0
##  2 38500    4000        2       1       1        1       0        0     0
##  3 49500    3060        3       1       1        1       0        0     0
##  4 60500    6650        3       1       2        1       1        0     0
##  5 61000    6360        2       1       1        1       0        0     0
##  6 66000    4160        3       1       1        1       1        1     0
##  7 66000    3880        3       2       2        1       0        1     0
##  8 69000    4160        3       1       3        1       0        0     0
##  9 83800    4800        3       1       1        1       1        1     0
## 10 88500    5500        3       2       4        1       1        0     0
## # ... with 535 more rows, and 3 more variables: airco <dbl>,
## #   garagepl <dbl>, prefarea <dbl>
…
